{
    "data": [
      {
        "id": "1",
        "title": "HR",
        "form_id": "1",
        "form_name": "Default Form"
      },
      {
        "id": "2",
        "title": "Manager",
        "form_id": "1",
        "form_name": "Default Form"
      },
      {
        "id": "3",
        "title": "Designer",
        "form_id": "2",
        "form_name": "Designer Form"
      }
    ]
  }